<?xml version="1.0" encoding="utf-8"?>
<!-- Generator: Adobe Illustrator 26.0.2, SVG Export Plug-In . SVG Version: 6.00 Build 0)  -->
<svg version="1.1" xmlns="http://www.w3.org/2000/svg" xmlns:xlink="http://www.w3.org/1999/xlink" x="0px" y="0px" width="40.61px"
	 height="37.56px" viewBox="0 0 40.61 37.56" style="enable-background:new 0 0 40.61 37.56;" xml:space="preserve">
<style type="text/css">
	.st0{fill:#EE7104;}
	.st1{fill:#EE7103;}
	.st2{fill:#FFFFFF;}
	.st3{fill:none;}
</style>
<g id="Calque_1">
</g>
<g id="Calque_2">
	<path class="st0" d="M37.09,13.39c-4.32-4.32-10.07-6.7-16.18-6.7c-6.11,0-11.86,2.38-16.18,6.7c-0.59,0.59-0.59,1.54,0,2.12
		l15.12,15.12c0.02,0.02,0.04,0.03,0.06,0.05c0.04,0.04,0.08,0.07,0.13,0.1c0.04,0.03,0.07,0.05,0.11,0.07
		c0.05,0.03,0.09,0.05,0.14,0.07c0.04,0.02,0.09,0.04,0.14,0.05c0.03,0.01,0.06,0.03,0.1,0.04c0.01,0,0.03,0,0.04,0.01
		c0.11,0.03,0.23,0.04,0.34,0.04c0,0,0,0,0,0c0,0,0,0,0,0c0,0,0,0,0,0c0.15,0,0.29-0.03,0.43-0.07c0.03-0.01,0.05-0.01,0.08-0.02
		c0.13-0.05,0.25-0.11,0.37-0.2c0.02-0.02,0.04-0.03,0.06-0.05c0.04-0.03,0.08-0.06,0.12-0.1l15.12-15.12
		c0.28-0.28,0.44-0.66,0.44-1.06S37.38,13.67,37.09,13.39z M23.8,24.56l2.41-9.09c0.21-0.8-0.26-1.62-1.07-1.83
		c-0.8-0.21-1.62,0.26-1.83,1.06l-3.18,11.96L7.96,14.49c3.6-3.11,8.15-4.8,12.96-4.8s9.35,1.69,12.96,4.8L23.8,24.56z"/>
</g>
<g id="Calque_3">
</g>
<g id="Calque_4">
</g>
<g id="Calque_5">
</g>
<g id="Calque_6">
</g>
<g id="Calque_7">
</g>
<g id="Calque_9">
</g>
</svg>
