<?xml version="1.0" encoding="utf-8"?>
<!-- Generator: Adobe Illustrator 26.0.2, SVG Export Plug-In . SVG Version: 6.00 Build 0)  -->
<svg version="1.1" xmlns="http://www.w3.org/2000/svg" xmlns:xlink="http://www.w3.org/1999/xlink" x="0px" y="0px" width="40.61px"
	 height="37.56px" viewBox="0 0 40.61 37.56" style="enable-background:new 0 0 40.61 37.56;" xml:space="preserve">
<style type="text/css">
	.st0{fill:#EE7104;}
	.st1{fill:#EE7103;}
	.st2{fill:#FFFFFF;}
	.st3{fill:none;}
</style>
<g id="Calque_1">
</g>
<g id="Calque_2">
</g>
<g id="Calque_3">
</g>
<g id="Calque_4">
	<g id="Groupe_79_00000086683100331565451430000014258525430969051071_" transform="translate(-327.5 -233.5)">
		<path class="st0" d="M348.44,268.58c-1.18,0-2.24-0.71-2.7-1.8l-6.6-15.89c-0.78-1.49-1.19-3.17-1.19-4.86
			c0-2.79,1.09-5.42,3.07-7.39c1.97-1.97,4.6-3.06,7.39-3.06c0.01,0,0.01,0,0.01,0c1.15,0,2.28,0.19,3.36,0.56
			c5.45,1.86,8.38,7.8,6.53,13.26c0,0.01-0.01,0.02-0.01,0.03c-0.12,0.34-0.25,0.67-0.4,0.99l-6.77,16.35
			C350.69,267.88,349.63,268.58,348.44,268.58z M348.41,238.58c-1.99,0-3.86,0.77-5.27,2.18c-1.41,1.41-2.18,3.28-2.19,5.27
			c0,1.22,0.3,2.43,0.88,3.51c0.02,0.04,0.04,0.09,0.06,0.13l6.55,15.78l6.72-16.23c0.13-0.28,0.22-0.51,0.3-0.74
			c0.01-0.02,0.01-0.04,0.02-0.06c1.31-3.89-0.77-8.12-4.66-9.44c-0.77-0.26-1.58-0.4-2.4-0.4
			C348.42,238.58,348.41,238.58,348.41,238.58L348.41,238.58L348.41,238.58C348.41,238.58,348.41,238.58,348.41,238.58z
			 M348.42,250.63c-1.32,0-2.56-0.51-3.49-1.45c-0.93-0.93-1.45-2.17-1.45-3.49c0-2.72,2.22-4.94,4.94-4.94
			c2.73,0,4.94,2.22,4.94,4.94C353.36,248.41,351.14,250.63,348.42,250.63L348.42,250.63L348.42,250.63z M348.42,243.11
			c-1.42,0-2.57,1.15-2.57,2.57c0,0.69,0.27,1.33,0.75,1.82c0.49,0.49,1.13,0.75,1.82,0.75c0,0,0,0,0,0l0,0
			c1.42,0,2.57-1.15,2.57-2.57C350.99,244.27,349.83,243.11,348.42,243.11z"/>
	</g>
</g>
<g id="Calque_5">
</g>
<g id="Calque_6">
</g>
<g id="Calque_7">
</g>
<g id="Calque_9">
</g>
</svg>
